<!-- Generated by IcoMoon.io -->
<svg version="1.1" xmlns="http://www.w3.org/2000/svg" width="20" height="20" viewBox="0 0 20 20">
<title>delete</title>
<path fill="#fff" d="M18.872 3.33h-3.328v-2.22c0-0.613-0.497-1.11-1.11-1.11 0 0 0 0-0.002 0s0 0-0.002 0h-8.88c0 0 0 0-0.002 0s0 0-0.002 0c-0.61 0-1.108 0.497-1.108 1.11v2.22h-3.328c-0.612 0-1.11 0.497-1.11 1.11s0.498 1.11 1.11 1.11h1.11c0 0 0 0.002 0 0.002v13.322c0 0.613 0.498 1.11 1.11 1.11h13.322c0.077 0 0.152-0.008 0.223-0.023 0.037-0.007 0.072-0.017 0.107-0.027s0.068-0.023 0.102-0.037c0.398-0.168 0.678-0.563 0.678-1.023v0 0-13.32c0 0 0-0.002 0-0.002h1.11c0.613 0 1.11-0.497 1.11-1.11s-0.497-1.112-1.11-1.112zM6.658 2.22h6.665v1.11h-6.665v-1.11zM11.1 17.763h-2.217v-12.21c0 0 0-0.002 0-0.002h2.217c0 0 0 0.002 0 0.002v12.21zM6.663 5.55c0 0 0 0.002 0 0.002v12.212h-2.223v-12.21c0 0 0-0.002 0-0.002h2.223zM15.542 5.553v12.212h-2.222v-12.212c0 0 0-0.002 0-0.002h2.222c0 0 0 0 0 0.002z"></path>
</svg>
